{
  "type": "service_account",
  "project_id": "react-crud-658dd",
  "private_key_id": "18efcc1e503e539b20d9b7ea396b35d839f9fb3b",
  "private_key": "-----BEGIN PRIVATE KEY-----\nMIIEvgIBADANBgkqhkiG9w0BAQEFAASCBKgwggSkAgEAAoIBAQCq829tpohZYjKG\nLpRCUM/zTdBYoIC8B/CujBb31yXTejqFe7/+/NoFEV+Gu8U5BQ0koqDyDbUKpwBT\nK86Tyx4stVSSXbd8866VDudzGiyW1AcLPMQLBubkpJ3mmYUCOF8zP4uyJ0k98CAu\nbzpbK2z0K5m6AdA5+385KMT4HWWexCMgKvwB1SMX8nu+mZc80f1h0yrYeVEcX0Nw\nx3ngf45U++tXXXHcefA9qBGkMEGry3UyDUnD2irUgvMrSYg7WtI+QCU6btcxaOqz\nmb1PRNtaEBlx90Q1ADMsk1cLUQAlo3etee3Z+bvZ6RN+NnZN79yuSelS5I1CsTX9\nYFse9TzHAgMBAAECggEAPppndABIbnNHjVwBb0eo37DfW5Vrj3BY85LZ1mkzsP5R\n8BAhf3+ZV8HE+dJJp1fyODhWOE5MvlnqBItGW1lG85h0ICWxzFBw3qVWnRA4xANh\nkPvvzxn39ENUj94ol2eNdXcP8W3xpH0LS/XvqPN+MuzEnxmK57DyJjyH5VTeogUX\nPA64KvMtXJM4nehaDgixe8ozUyP+Z/9yKh55XUd0rxq336/Wdm0t2wuaU1Un/dPt\nY2/mOEb6FsgBdm1auOAzSbw45nedxVhMHkbAi1VHyQaeOhNDiVB0Ld5TBlgHGgAn\n8yu8CV+d9bkEZ5OTKOLLjwOlyg/PZIX+ANPi11OkAQKBgQDvUYfVVEn+FDEukCBY\nvGa2XCz9HDa2tKcmlPg2MPtcjPQCSllztogcAz0SmZL0dUeLp9wsHDU4xB1f18kY\nivN+Qrhk/p4vWoqLThDZ8iISeq2MT5x2ogirYCXYI/r7WtZMo4pJ+XQnqy3FF9uH\nuLC/kKVPAEEY2zeioXXln0tNSQKBgQC23e8NfJyidRJQEiHy1AQzLUoy4j2jJuOG\nOoXXL9lWEDqx0IRwbZX29NsRJLtjidgaGewQQXHkF+I+sTXXurKiCrmOti1z/TQz\nznbPX6I9SQtvFud1NIuyJEtaVMk+98evnH/cp5DDvdi5Oxdnc+csSSvj55Id1Hk1\nFAuHeEGJjwKBgQCQh2GMMVJaUqF9KGeQj39MZJB6774PSzyjLVZVi/FR7II0m+g3\n3KWInWAVyo+YePeTXPW34fU2aiH/TtdQriHtP6gSvj6UBI8lIClHJlbzaAlFcpLg\nhmzL6s4QIXKiuDIxqJaMpE1E47lJjWX0KlL77gQXmOS3eTS5T99epHwamQKBgA8e\n3MRluGHqgkAir7HvfAVrSkZY1LXn4kpYDncTmsn1/5RyZHETbqID7xVEz0XUwQyv\ndgiGEM/GdcuvRX94DYs+jcdSIwIDPszF1qchBj5BCvP9ldfoJ2DshVqLxjQxss4/\nh4cMR/kXepMeYroIKGZOCpYGsNtMlVUhOi7Sb8DbAoGBAJnERP1SSXZCAaRKpW7a\nMnyq32brP+N5N7wsHPw60LpWRtFsiGAWfF6DBjbUngRfwfnlkydINV6T7CqMBh/1\ndin93d/5UYndfHyaYAiKcIEq1jmjUFGNYEZ4ITF6HLMzNgWX7q8QZBcb9ebiySah\nWP/H7iAK8ZEaNwqJIBUf7/SI\n-----END PRIVATE KEY-----\n",
  "client_email": "firebase-adminsdk-q3d66@react-crud-658dd.iam.gserviceaccount.com",
  "client_id": "107502889554589022596",
  "auth_uri": "https://accounts.google.com/o/oauth2/auth",
  "token_uri": "https://oauth2.googleapis.com/token",
  "auth_provider_x509_cert_url": "https://www.googleapis.com/oauth2/v1/certs",
  "client_x509_cert_url": "https://www.googleapis.com/robot/v1/metadata/x509/firebase-adminsdk-q3d66%40react-crud-658dd.iam.gserviceaccount.com"
}
